{
    "_id": "63e974028091cf1100000006",
    "applicationId": "mainui",
    "organizationId": "Org",
    "pluginType": "API",
    "pluginId": "API",
    "unpublishedAction": {
        "name": "createNotification",
        "datasource": {
            "invalids": [],
            "datasourceConfiguration": {
                "url": "https://reminderflow-63e91dcca0ac091200000018.ubos.tech"
            },
            "isValid": true,
            "name": "DEFAULT_REST_DATASOURCE",
            "new": true,
            "organizationId": "Org",
            "pluginId": "API",
            "userPermissions": []
        },
        "executeOnLoad": false,
        "pageId": "home",
        "actionConfiguration": {
            "timeoutInMillisecond": 10000,
            "encodeParamsToggle": true,
            "httpMethod": "POST",
            "headers": [
                {
                    "key": "content-type",
                    "value": "application/json"
                }
            ],
            "queryParameters": [],
            "bodyFormData": [],
            "formData": {
                "apiContentType": "none"
            },
            "pluginSpecifiedTemplates": [
                {
                    "value": true
                }
            ],
            "path": "/createNotification",
            "body": "{\n\t\"name\": \"{{InputName.text}}\",\n\t\"link\": \"{{InputImgURL.text}}\",\n\t\"caption\": \"{{InputCaption.text}}\"\n}"
        },
        "dynamicBindingPathList": [
            {
                "key": "body"
            }
        ],
        "isValid": true,
        "invalids": [],
        "jsonPathKeys": [
            "InputName.text",
            "InputImgURL.text",
            "InputCaption.text"
        ],
        "userSetOnLoad": false,
        "confirmBeforeExecute": false
    },
    "createdAt": "2023-02-12T23:19:30.983Z",
    "updatedAt": "2023-02-13T04:18:39.851Z",
    "deleted": false,
    "policies": [
        {
            "permission": "read:actions",
            "groups": [],
            "users": []
        },
        {
            "permission": "manage:actions",
            "groups": [],
            "users": []
        },
        {
            "permission": "execute:actions",
            "groups": [],
            "users": []
        }
    ],
    "publishedAction": {
        "name": "createNotification",
        "datasource": {
            "invalids": [],
            "datasourceConfiguration": {
                "url": "https://reminderflow-63e91dcca0ac091200000018.ubos.tech"
            },
            "isValid": true,
            "name": "DEFAULT_REST_DATASOURCE",
            "new": true,
            "organizationId": "Org",
            "pluginId": "API",
            "userPermissions": []
        },
        "executeOnLoad": false,
        "pageId": "home",
        "actionConfiguration": {
            "timeoutInMillisecond": 10000,
            "encodeParamsToggle": true,
            "httpMethod": "POST",
            "headers": [
                {
                    "key": "content-type",
                    "value": "application/json"
                }
            ],
            "queryParameters": [],
            "bodyFormData": [],
            "formData": {
                "apiContentType": "none"
            },
            "pluginSpecifiedTemplates": [
                {
                    "value": true
                }
            ],
            "path": "/createNotification",
            "body": "{\n\t\"name\": \"{{InputName.text}}\",\n\t\"link\": \"{{InputImgURL.text}}\",\n\t\"caption\": \"{{InputCaption.text}}\"\n}"
        },
        "dynamicBindingPathList": [
            {
                "key": "body"
            }
        ],
        "isValid": true,
        "invalids": [],
        "jsonPathKeys": [
            "InputName.text",
            "InputImgURL.text",
            "InputCaption.text"
        ],
        "userSetOnLoad": false,
        "confirmBeforeExecute": false
    }
}
