{
    "_id": "63e9af36716a670011d039d0",
    "name": "onReminderDelete",
    "collectionId": "63e9af188091cf110000000c",
    "executeOnLoad": false,
    "pageId": "home",
    "organizationId": "Org",
    "actionConfiguration": {
        "body": "() => {\n\t\tshowAlert(\"Reminder deleted\", 'success');\n\t\tgetNotifications.run();\n\t}",
        "isAsync": true,
        "timeoutInMillisecond": 10000,
        "jsArguments": [],
        "paginationType": "NONE",
        "encodeParamsToggle": true
    },
    "applicationId": "mainui",
    "datasource": {
        "isValid": true,
        "messages": [],
        "name": "UNUSED_DATASOURCE",
        "new": true,
        "organizationId": "Org",
        "pluginId": "",
        "userPermissions": []
    },
    "dynamicBindingPathList": [
        {
            "key": "body"
        }
    ],
    "fullyQualifiedName": "DeleteReminder.onReminderDelete",
    "isValid": true,
    "jsonPathKeys": [
        "() => {\n\t\tdeleteNotification\n\t}"
    ],
    "pluginType": "JS",
    "id": "63e9af36716a670011d039d0"
}
