{
    "_id": "63e97ec78091cf1100000007",
    "applicationId": "mainui",
    "organizationId": "Org",
    "pluginType": "API",
    "pluginId": "API",
    "unpublishedAction": {
        "name": "getNotifications",
        "datasource": {
            "invalids": [],
            "datasourceConfiguration": {
                "url": "https://reminderflow-63e91dcca0ac091200000018.ubos.tech"
            },
            "isValid": true,
            "name": "DEFAULT_REST_DATASOURCE",
            "new": true,
            "organizationId": "Org",
            "pluginId": "API",
            "userPermissions": []
        },
        "executeOnLoad": true,
        "pageId": "home",
        "actionConfiguration": {
            "timeoutInMillisecond": 10000,
            "encodeParamsToggle": true,
            "httpMethod": "GET",
            "headers": [],
            "queryParameters": [],
            "bodyFormData": [],
            "formData": {
                "apiContentType": "none"
            },
            "pluginSpecifiedTemplates": [
                {
                    "value": true
                }
            ],
            "path": "/getNotifications"
        },
        "dynamicBindingPathList": [],
        "isValid": true,
        "invalids": [],
        "jsonPathKeys": [],
        "userSetOnLoad": false,
        "confirmBeforeExecute": false
    },
    "createdAt": "2023-02-13T00:05:27.082Z",
    "updatedAt": "2023-02-13T03:19:16.315Z",
    "deleted": false,
    "policies": [
        {
            "permission": "read:actions",
            "groups": [],
            "users": []
        },
        {
            "permission": "manage:actions",
            "groups": [],
            "users": []
        },
        {
            "permission": "execute:actions",
            "groups": [],
            "users": []
        }
    ],
    "publishedAction": {
        "name": "getNotifications",
        "datasource": {
            "invalids": [],
            "datasourceConfiguration": {
                "url": "https://reminderflow-63e91dcca0ac091200000018.ubos.tech"
            },
            "isValid": true,
            "name": "DEFAULT_REST_DATASOURCE",
            "new": true,
            "organizationId": "Org",
            "pluginId": "API",
            "userPermissions": []
        },
        "executeOnLoad": true,
        "pageId": "home",
        "actionConfiguration": {
            "timeoutInMillisecond": 10000,
            "encodeParamsToggle": true,
            "httpMethod": "GET",
            "headers": [],
            "queryParameters": [],
            "bodyFormData": [],
            "formData": {
                "apiContentType": "none"
            },
            "pluginSpecifiedTemplates": [
                {
                    "value": true
                }
            ],
            "path": "/getNotifications"
        },
        "dynamicBindingPathList": [],
        "isValid": true,
        "invalids": [],
        "jsonPathKeys": [],
        "userSetOnLoad": false,
        "confirmBeforeExecute": false
    }
}
